{
  "emptyProjects": {
    "page": 1,
    "per_page": 10,
    "prev_page": null,
    "next_page": null,
    "total": 0,
    "total_pages": 1,
    "data": []
  },
  "projects": {
    "page": 1,
    "per_page": 10,
    "prev_page": null,
    "next_page": 2,
    "total": 52,
    "total_pages": 6,
    "data": [
      {
        "id": 38,
        "user_id": 1,
        "name": "proj01_asan",
        "key": "proj1_key",
        "project_id": 333123,
        "provider_id": 3,
        "created_at": "2022-05-23T07:39:15.027Z",
        "updated_at": "2022-05-23T07:39:15.027Z",
        "provider": {
          "id": 3,
          "user_id": 1,
          "name": "asana",
          "space_key": "asdf",
          "api_key": "vv",
          "created_at": "2022-05-23T07:38:08.304Z",
          "updated_at": "2022-05-23T09:20:13.396Z"
        }
      },
      {
        "id": 37,
        "user_id": 1,
        "name": "proj01_asan",
        "key": "proj1_key",
        "project_id": 333123,
        "provider_id": 3,
        "created_at": "2022-05-23T07:39:15.027Z",
        "updated_at": "2022-05-23T07:39:15.027Z",
        "provider": {
          "id": 3,
          "user_id": 1,
          "name": "asana",
          "space_key": "asdf",
          "api_key": "vv",
          "created_at": "2022-05-23T07:38:08.304Z",
          "updated_at": "2022-05-23T09:20:13.396Z"
        }
      },
      {
        "id": 3,
        "user_id": 1,
        "name": "proj01_back",
        "key": "proj3_key",
        "project_id": 123,
        "provider_id": 1,
        "created_at": "2022-05-23T07:39:15.027Z",
        "updated_at": "2022-05-23T07:39:15.027Z",
        "provider": {
          "id": 1,
          "user_id": 1,
          "name": "backlog",
          "space_key": "asdf",
          "api_key": "asdf",
          "created_at": "2022-05-23T07:38:08.304Z",
          "updated_at": "2022-05-23T07:37:45.955Z"
        }
      },
      {
        "id": 20,
        "user_id": 1,
        "name": "proj01_jira",
        "key": "proj1_key",
        "project_id": 3311,
        "provider_id": 4,
        "created_at": "2022-05-23T07:39:15.027Z",
        "updated_at": "2022-05-23T07:39:15.027Z",
        "provider": {
          "id": 4,
          "user_id": 1,
          "name": "notion",
          "space_key": "asdf",
          "api_key": "fvb",
          "created_at": "2022-05-23T07:38:08.304Z",
          "updated_at": "2022-05-23T09:20:13.396Z"
        }
      },
      {
        "id": 13,
        "user_id": 1,
        "name": "proj01_trell",
        "key": "proj1_key",
        "project_id": 3311,
        "provider_id": 2,
        "created_at": "2022-05-23T07:39:15.027Z",
        "updated_at": "2022-05-23T07:39:15.027Z",
        "provider": {
          "id": 2,
          "user_id": 1,
          "name": "trello",
          "space_key": "asdf",
          "api_key": "sdf",
          "created_at": "2022-05-23T07:38:08.304Z",
          "updated_at": "2022-05-23T09:19:54.818Z"
        }
      },
      {
        "id": 39,
        "user_id": 1,
        "name": "proj02_asan",
        "key": "proj1_key",
        "project_id": 333123,
        "provider_id": 3,
        "created_at": "2022-05-23T07:39:15.027Z",
        "updated_at": "2022-05-23T07:39:15.027Z",
        "provider": {
          "id": 3,
          "user_id": 1,
          "name": "asana",
          "space_key": "asdf",
          "api_key": "vv",
          "created_at": "2022-05-23T07:38:08.304Z",
          "updated_at": "2022-05-23T09:20:13.396Z"
        }
      },
      {
        "id": 2,
        "user_id": 1,
        "name": "proj02_back",
        "key": "proj2_key",
        "project_id": 54312,
        "provider_id": 1,
        "created_at": "2022-05-23T07:39:15.027Z",
        "updated_at": "2022-05-23T07:39:15.027Z",
        "provider": {
          "id": 1,
          "user_id": 1,
          "name": "backlog",
          "space_key": "asdf",
          "api_key": "asdf",
          "created_at": "2022-05-23T07:38:08.304Z",
          "updated_at": "2022-05-23T07:37:45.955Z"
        }
      },
      {
        "id": 4,
        "user_id": 1,
        "name": "proj02_back",
        "key": "proj4_key",
        "project_id": 333,
        "provider_id": 1,
        "created_at": "2022-05-23T07:39:15.027Z",
        "updated_at": "2022-05-23T07:39:15.027Z",
        "provider": {
          "id": 1,
          "user_id": 1,
          "name": "backlog",
          "space_key": "asdf",
          "api_key": "asdf",
          "created_at": "2022-05-23T07:38:08.304Z",
          "updated_at": "2022-05-23T07:37:45.955Z"
        }
      },
      {
        "id": 21,
        "user_id": 1,
        "name": "proj02_jira",
        "key": "proj1_key",
        "project_id": 3311,
        "provider_id": 4,
        "created_at": "2022-05-23T07:39:15.027Z",
        "updated_at": "2022-05-23T07:39:15.027Z",
        "provider": {
          "id": 4,
          "user_id": 1,
          "name": "notion",
          "space_key": "asdf",
          "api_key": "fvb",
          "created_at": "2022-05-23T07:38:08.304Z",
          "updated_at": "2022-05-23T09:20:13.396Z"
        }
      },
      {
        "id": 14,
        "user_id": 1,
        "name": "proj02_trell",
        "key": "proj1_key",
        "project_id": 3311,
        "provider_id": 2,
        "created_at": "2022-05-23T07:39:15.027Z",
        "updated_at": "2022-05-23T07:39:15.027Z",
        "provider": {
          "id": 2,
          "user_id": 1,
          "name": "trello",
          "space_key": "asdf",
          "api_key": "sdf",
          "created_at": "2022-05-23T07:38:08.304Z",
          "updated_at": "2022-05-23T09:19:54.818Z"
        }
      }
    ]
  },
  "logoutPayload": {
    "email": "john.doe@company.com",
    "token_id": "eyJhbGciO"
  }
}
